<?xml version="1.0" encoding="utf-8"?>
<!-- Generator: Adobe Illustrator 24.0.2, SVG Export Plug-In . SVG Version: 6.00 Build 0)  -->
<svg version="1.1" id="Layer_1" xmlns="http://www.w3.org/2000/svg" xmlns:xlink="http://www.w3.org/1999/xlink" x="0px" y="0px"
	 viewBox="0 0 675 200" style="enable-background:new 0 0 675 200;" xml:space="preserve">
<style type="text/css">
	.st0{fill:#373737;}
	.st1{fill:#FFFFFF;}
	.st2{fill:#8C929D;}
	.st3{fill:#E2452A;}
	.st4{fill:#FAA327;}
	.st5{fill:#F36E2C;}
</style>
<rect x="-9.81" y="-3.94" class="st0" width="694.63" height="207.89"/>
<g>
	<g>
		<path class="st1" d="M317.76,95.58h-21.99c-0.57,0-1.03,0.46-1.03,1.03v10.75c0,0.57,0.46,1.03,1.03,1.03h8.58v13.36c0,0-1.93,0.66-7.25,0.66
			c-6.28,0-15.06-2.3-15.06-21.59c0-19.3,9.14-21.84,17.72-21.84c7.43,0,10.63,1.31,12.66,1.94c0.64,0.2,1.23-0.44,1.23-1.01
			l2.45-10.39c0-0.27-0.09-0.59-0.39-0.8c-0.83-0.59-5.87-3.41-18.61-3.41c-14.68,0-29.74,6.25-29.74,36.27
			c0,30.02,17.24,34.5,31.77,34.5c12.03,0,19.33-5.14,19.33-5.14c0.3-0.17,0.33-0.59,0.33-0.78V96.61
			C318.79,96.04,318.33,95.58,317.76,95.58z"/>
		<path class="st1" d="M431.08,68.89c0-0.57-0.45-1.03-1.02-1.03h-12.38c-0.57,0-1.03,0.46-1.03,1.03c0,0,0,23.93,0,23.93h-19.3V68.89
			c0-0.57-0.46-1.03-1.02-1.03h-12.38c-0.56,0-1.02,0.46-1.02,1.03v64.79c0,0.57,0.46,1.04,1.02,1.04h12.38
			c0.57,0,1.02-0.47,1.02-1.04v-27.71h19.3c0,0-0.03,27.71-0.03,27.71c0,0.57,0.46,1.04,1.03,1.04h12.41c0.57,0,1.02-0.47,1.02-1.04
			V68.89z"/>
		<g>
			<g>
				<path class="st1" d="M341.12,77.39c0-4.46-3.57-8.06-7.98-8.06c-4.41,0-7.98,3.6-7.98,8.06c0,4.45,3.58,8.07,7.98,8.07
					C337.55,85.46,341.12,81.84,341.12,77.39z"/>
				<path class="st1" d="M340.24,120.01c0-1.66,0-29.91,0-29.91c0-0.57-0.46-1.03-1.02-1.03h-12.34c-0.57,0-1.07,0.58-1.07,1.15
					c0,0,0,35.99,0,42.85c0,1.26,0.78,1.63,1.8,1.63c0,0,5.27,0,11.12,0c1.22,0,1.52-0.6,1.52-1.65
					C340.24,130.75,340.24,121.76,340.24,120.01z"/>
			</g>
		</g>
		<path class="st1" d="M478.13,89.17h-12.29c-0.56,0-1.02,0.46-1.02,1.04v31.77c0,0-3.12,2.28-7.55,2.28c-4.43,0-5.61-2.01-5.61-6.35
			c0-4.34,0-27.7,0-27.7c0-0.57-0.46-1.04-1.02-1.04h-12.47c-0.56,0-1.02,0.46-1.02,1.04c0,0,0,16.92,0,29.8
			c0,12.88,7.18,16.04,17.06,16.04c8.1,0,14.64-4.48,14.64-4.48s0.31,2.36,0.45,2.64c0.14,0.28,0.51,0.56,0.9,0.56l7.93-0.04
			c0.56,0,1.02-0.47,1.02-1.03l0-43.49C479.16,89.63,478.7,89.17,478.13,89.17z"/>
		<path class="st1" d="M511.71,87.71c-6.98,0-11.72,3.11-11.72,3.11V68.89c0-0.57-0.46-1.03-1.02-1.03h-12.42c-0.56,0-1.02,0.46-1.02,1.03v64.79
			c0,0.57,0.46,1.04,1.02,1.04c0,0,8.61,0,8.61,0c0.39,0,0.68-0.2,0.9-0.55c0.21-0.35,0.52-2.99,0.52-2.99s5.08,4.81,14.69,4.81
			c11.28,0,17.75-5.72,17.75-25.69C529.03,90.32,518.7,87.71,511.71,87.71z M506.87,124.22c-4.26-0.13-7.15-2.06-7.15-2.06v-20.52
			c0,0,2.85-1.75,6.35-2.06c4.42-0.4,8.69,0.94,8.69,11.49C514.75,122.2,512.83,124.4,506.87,124.22z"/>
		<path class="st1" d="M375.82,89.07h-9.29c0,0-0.01-12.27-0.01-12.27c0-0.46-0.24-0.7-0.78-0.7h-12.66c-0.49,0-0.76,0.22-0.76,0.69v12.68
			c0,0-6.34,1.53-6.77,1.65c-0.43,0.12-0.74,0.52-0.74,0.99v7.97c0,0.57,0.46,1.04,1.02,1.04h6.49c0,0,0,8.33,0,19.17
			c0,14.24,9.99,15.64,16.73,15.64c3.08,0,6.76-0.99,7.37-1.21c0.37-0.14,0.58-0.52,0.58-0.93l0.01-8.76c0-0.57-0.48-1.03-1.03-1.03
			c-0.54,0-1.93,0.22-3.35,0.22c-4.56,0-6.11-2.12-6.11-4.87c0-2.74,0-18.22,0-18.22h9.29c0.57,0,1.02-0.46,1.02-1.04V90.1
			C376.85,89.53,376.39,89.07,375.82,89.07z"/>
	</g>
	<path class="st1" d="M195.81,51.38c-27.52,0-49.84,22.32-49.84,49.85c0,22.02,14.28,40.7,34.09,47.3c2.49,0.46,3.4-1.08,3.4-2.4
		c0-1.18-0.04-4.32-0.07-8.48c-13.87,3.01-16.79-6.68-16.79-6.68c-2.27-5.76-5.53-7.29-5.53-7.29c-4.53-3.09,0.34-3.03,0.34-3.03
		c5,0.35,7.64,5.14,7.64,5.14c4.45,7.62,11.67,5.42,14.51,4.14c0.45-3.22,1.74-5.42,3.16-6.66c-11.07-1.26-22.7-5.53-22.7-24.64
		c0-5.44,1.94-9.89,5.13-13.38c-0.51-1.26-2.22-6.33,0.49-13.19c0,0,4.19-1.34,13.71,5.11c3.98-1.11,8.24-1.66,12.48-1.68
		c4.23,0.02,8.5,0.57,12.48,1.68c9.52-6.45,13.69-5.11,13.69-5.11c2.72,6.86,1.01,11.93,0.5,13.19c3.19,3.48,5.12,7.93,5.12,13.38
		c0,19.15-11.65,23.36-22.76,24.6c1.79,1.54,3.38,4.58,3.38,9.23c0,6.66-0.06,12.04-0.06,13.67c0,1.33,0.9,2.88,3.43,2.4
		c19.79-6.6,34.06-25.28,34.06-47.29C245.66,73.7,223.34,51.38,195.81,51.38z"/>
</g>
</svg>
