<svg width="13" height="12" viewBox="0 0 13 12" fill="none" xmlns="http://www.w3.org/2000/svg">
<path d="M4.08838 11.801C8.99427 11.801 11.6771 7.5694 11.6771 3.90012C11.6771 3.77989 11.6748 3.66028 11.6694 3.54113C12.1902 3.14921 12.6429 2.65999 13 2.10335C12.5221 2.3244 12.0079 2.47326 11.4684 2.54038C12.019 2.19663 12.4418 1.65261 12.6413 1.00422C12.1259 1.32242 11.5551 1.55363 10.9477 1.67832C10.4609 1.13861 9.7677 0.801025 9.00077 0.801025C7.52768 0.801025 6.33314 2.0447 6.33314 3.57762C6.33314 3.7956 6.35665 4.00742 6.40219 4.21077C4.18567 4.09485 2.22007 2.98973 0.904735 1.30964C0.675409 1.71989 0.543373 2.19679 0.543373 2.70525C0.543373 3.6686 1.0143 4.51911 1.73037 5.01679C1.29286 5.00278 0.881817 4.87748 0.522377 4.66935C0.521786 4.6809 0.521786 4.6926 0.521786 4.70476C0.521786 6.04972 1.44131 7.17255 2.66157 7.42701C2.43756 7.49059 2.20188 7.52476 1.95851 7.52476C1.7867 7.52476 1.61962 7.5069 1.45713 7.47473C1.79661 8.57786 2.78133 9.3808 3.94881 9.40343C3.03579 10.1483 1.88576 10.5921 0.636227 10.5921C0.421096 10.5921 0.208774 10.5794 0 10.5537C1.18034 11.3412 2.58187 11.801 4.08838 11.801Z" fill="#949494"/>
</svg>
